Fitting the distributions - Project notebook for the Invasion Heterogeneity project
…
There they all are! The generalized gamma didn’t always converge, which is the source of the warnings and the fact that it is missing from many places.

Now lets calculate the delta-AIC within each dataset:

result <- group_by(result, ID) %>% mutate(delta_AIC = AIC - min(AIC))
print(result, n=50) 

# A tibble: 340 x 10
# Groups:   ID [38]
   ID    model    AIC  par1   par2   par3     se1     se2    se3 delta_AIC
   <fct> <fct>  <dbl> <dbl>  <dbl>  <dbl>   <dbl>   <dbl>  <dbl>     <dbl>
 1 73_0  hnorm 1531.  5.27  NA     NA     0.209   NA      NA        0     
 2 73_0  exp   1564.  0.237 NA     NA     0.0133  NA      NA       32.9   
 3 73_0  lnorm 1556.  1.14   0.843 NA     0.0481   0.0370 NA       25.1   
 4 73_0  gamma 1533.  1.63   0.386 NA     0.131    0.0352 NA        2.25  
 5 73_0  weib… 1531.  1.34   4.60  NA     0.0625   0.204  NA        0.183 
 6 73_0  invg… 1559.  4.24   4.66  NA     0.227    0.415  NA       28.4   
 7 73_0  logis 1647.  3.89   1.77  NA     0.175    0.0828 NA      117.    
 8 73_0  invg… 1601.  1.66   3.77  NA     0.130    0.363  NA       70.1   
 9 73_0  geng… 1533.  1.57   0.727  1.12  0.0930   0.0480  0.226    1.90  
10 75_0  hnorm 1266.  5.88  NA     NA     0.262   NA      NA        7.76  
11 75_0  exp   1294.  0.212 NA     NA     0.0133  NA      NA       35.4   
12 75_0  lnorm 1274.  1.27   0.805 NA     0.0514   0.0388 NA       15.0   
13 75_0  gamma 1259.  1.79   0.378 NA     0.159    0.0378 NA        0     
14 75_0  weib… 1260.  1.39   5.20  NA     0.0701   0.249  NA        0.928 
15 75_0  invg… 1279.  4.75   5.70  NA     0.273    0.558  NA       19.8   
16 75_0  logis 1340.  4.33   1.87  NA     0.205    0.0992 NA       80.9   
17 75_0  invg… 1312.  1.74   4.59  NA     0.152    0.484  NA       53.3   
18 75_0  geng… 1261.  1.58   0.740  0.801 0.0878   0.0425  0.199    1.93  
19 75_1  hnorm  714.  4.66  NA     NA     0.264   NA      NA        3.87  
20 75_1  exp    736.  0.263 NA     NA     0.0210  NA      NA       26.7   
21 75_1  lnorm  717.  1.08   0.763 NA     0.0621   0.0472 NA        7.69  
22 75_1  gamma  710.  1.95   0.509 NA     0.223    0.0649 NA        0     
23 75_1  weib…  710.  1.47   4.23  NA     0.0958   0.245  NA        0.0401
24 75_1  invg…  717.  3.83   5.32  NA     0.261    0.670  NA        7.83  
25 75_1  logis  757.  3.55   1.49  NA     0.209    0.0996 NA       47.2   
26 75_1  invg…  735.  1.97   4.46  NA     0.222    0.599  NA       25.5   
27 75_1  geng…  711.  1.39   0.699  0.851 0.120    0.0565  0.297    1.79  
28 77_0  hnorm 1154.  4.32  NA     NA     0.189   NA      NA        2.05  
29 77_0  exp   1171.  0.296 NA     NA     0.0183  NA      NA       18.1   
30 77_0  lnorm 1172.  0.914  0.848 NA     0.0540   0.0431 NA       19.8   
31 77_0  gamma 1153.  1.54   0.453 NA     0.144    0.0476 NA        1.05  
32 77_0  weib… 1152.  1.28   3.67  NA     0.0669   0.188  NA        0     
33 77_0  invg… 1176.  3.42   3.77  NA     0.202    0.391  NA       23.2   
34 77_0  logis 1245.  3.11   1.42  NA     0.153    0.0737 NA       93.0   
35 77_0  invg… 1207.  1.72   3.18  NA     0.154    0.356  NA       55.0   
36 77_0  geng… 1154.  1.31   0.776  1.02  0.0931   0.0461  0.211    1.99  
37 78_2  hnorm 3047.  6.61  NA     NA     0.194   NA      NA       10.7   
38 78_2  exp   3145.  0.183 NA     NA     0.00759 NA      NA      109.    
39 78_2  lnorm 3127.  1.42   0.823 NA     0.0346   0.0261 NA       90.9   
40 78_2  gamma 3055.  1.83   0.333 NA     0.107    0.0219 NA       19.0   
41 78_2  weib… 3041.  1.47   6.05  NA     0.0505   0.180  NA        5.12  
42 78_2  invg… 3151.  5.49   6.24  NA     0.214    0.401  NA      115.    
43 78_2  logis 3195.  5.17   2.12  NA     0.155    0.0730 NA      159.    
44 78_2  invg… 3253.  1.59   4.71  NA     0.0907   0.329  NA      217.    
45 78_2  geng… 3036.  1.93   0.618  1.39  0.0548   0.0320  0.155    0     
46 79_0  hnorm   14.8 1.72  NA     NA     0.560   NA      NA        0     
47 79_0  exp     15.9 0.693 NA     NA     0.316   NA      NA        1.03  
48 79_0  lnorm   17.6 0.248  0.630 NA     0.320    0.293  NA        2.72  
49 79_0  gamma   17.1 2.47   1.64  NA     2.27     1.52   NA        2.23  
50 79_0  weib…   16.7 1.79   1.69  NA     0.883    0.474  NA        1.91  
# ... with 290 more rows
…
